R4DS bookclub
…
Default, **by = NULL**, joins using all variables that appear in both tables 
(natural join):

```r
flights2 %>% 
  left_join(weather)
```

```
## Joining, by = c("year", "month", "day", "hour", "origin")
```

```
## # A tibble: 336,776 x 18
##     year month   day  hour origin dest  tailnum carrier  temp  dewp humid
##    <int> <int> <int> <dbl> <chr>  <chr> <chr>   <chr>   <dbl> <dbl> <dbl>
##  1  2013     1     1     5 EWR    IAH   N14228  UA       39.0  28.0  64.4
##  2  2013     1     1     5 LGA    IAH   N24211  UA       39.9  25.0  54.8
##  3  2013     1     1     5 JFK    MIA   N619AA  AA       39.0  27.0  61.6
##  4  2013     1     1     5 JFK    BQN   N804JB  B6       39.0  27.0  61.6
##  5  2013     1     1     6 LGA    ATL   N668DN  DL       39.9  25.0  54.8
##  6  2013     1     1     5 EWR    ORD   N39463  UA       39.0  28.0  64.4
##  7  2013     1     1     6 EWR    FLL   N516JB  B6       37.9  28.0  67.2
##  8  2013     1     1     6 LGA    IAD   N829AS  EV       39.9  25.0  54.8
##  9  2013     1     1     6 JFK    MCO   N593JB  B6       37.9  27.0  64.3
## 10  2013     1     1     6 LGA    ORD   N3ALAA  AA       39.9  25.0  54.8
## # ... with 336,766 more rows, and 7 more variables: wind_dir <dbl>,
## #   wind_speed <dbl>, wind_gust <dbl>, precip <dbl>, pressure <dbl>,
## #   visib <dbl>, time_hour <dttm>
```
---

# Defining the key columns to use for the join

**by = "key"** joins using a single variable that has the same name in both 
tables:

```r
flights2 %>% 
  select(-origin, -dest) %>% 
  left_join(airlines, by = "carrier")
```

```
## # A tibble: 336,776 x 7
##     year month   day  hour tailnum carrier name                    
##    <int> <int> <int> <dbl> <chr>   <chr>   <chr>                   
##  1  2013     1     1     5 N14228  UA      United Air Lines Inc.   
##  2  2013     1     1     5 N24211  UA      United Air Lines Inc.   
##  3  2013     1     1     5 N619AA  AA      American Airlines Inc.  
##  4  2013     1     1     5 N804JB  B6      JetBlue Airways         
##  5  2013     1     1     6 N668DN  DL      Delta Air Lines Inc.    
##  6  2013     1     1     5 N39463  UA      United Air Lines Inc.   
##  7  2013     1     1     6 N516JB  B6      JetBlue Airways         
##  8  2013     1     1     6 N829AS  EV      ExpressJet Airlines Inc.
##  9  2013     1     1     6 N593JB  B6      JetBlue Airways         
## 10  2013     1     1     6 N3ALAA  AA      American Airlines Inc.  
## # ... with 336,766 more rows
```

---

# Defining the key columns to use for the join

**by = "x"** (character vector) is like a natural join, but only uses some of
the common variables:

```r
flights2 %>% 
  left_join(planes, by = "tailnum")
```

```
## # A tibble: 336,776 x 16
##    year.x month   day  hour origin dest  tailnum carrier year.y type 
##     <int> <int> <int> <dbl> <chr>  <chr> <chr>   <chr>    <int> <chr>
##  1   2013     1     1     5 EWR    IAH   N14228  UA        1999 Fixe~
##  2   2013     1     1     5 LGA    IAH   N24211  UA        1998 Fixe~
##  3   2013     1     1     5 JFK    MIA   N619AA  AA        1990 Fixe~
##  4   2013     1     1     5 JFK    BQN   N804JB  B6        2012 Fixe~
##  5   2013     1     1     6 LGA    ATL   N668DN  DL        1991 Fixe~
##  6   2013     1     1     5 EWR    ORD   N39463  UA        2012 Fixe~
##  7   2013     1     1     6 EWR    FLL   N516JB  B6        2000 Fixe~
##  8   2013     1     1     6 LGA    IAD   N829AS  EV        1998 Fixe~
##  9   2013     1     1     6 JFK    MCO   N593JB  B6        2004 Fixe~
## 10   2013     1     1     6 LGA    ORD   N3ALAA  AA          NA <NA> 
## # ... with 336,766 more rows, and 6 more variables: manufacturer <chr>,
## #   model <chr>, engines <int>, seats <int>, speed <int>, engine <chr>
```

---

# Defining the key columns to use for the join

**by = c("a" = "b")** (named character vector) matches variable a in table x 
to column b in table y:

```r
flights2 %>% 
  left_join(airports, c("origin" = "faa"))
```

```
## # A tibble: 336,776 x 15
##     year month   day  hour origin dest  tailnum carrier name    lat   lon   alt
##    <int> <int> <int> <dbl> <chr>  <chr> <chr>   <chr>   <chr> <dbl> <dbl> <dbl>
##  1  2013     1     1     5 EWR    IAH   N14228  UA      Newa~  40.7 -74.2    18
##  2  2013     1     1     5 LGA    IAH   N24211  UA      La G~  40.8 -73.9    22
##  3  2013     1     1     5 JFK    MIA   N619AA  AA      John~  40.6 -73.8    13
##  4  2013     1     1     5 JFK    BQN   N804JB  B6      John~  40.6 -73.8    13
##  5  2013     1     1     6 LGA    ATL   N668DN  DL      La G~  40.8 -73.9    22
##  6  2013     1     1     5 EWR    ORD   N39463  UA      Newa~  40.7 -74.2    18
##  7  2013     1     1     6 EWR    FLL   N516JB  B6      Newa~  40.7 -74.2    18
##  8  2013     1     1     6 LGA    IAD   N829AS  EV      La G~  40.8 -73.9    22
##  9  2013     1     1     6 JFK    MCO   N593JB  B6      John~  40.6 -73.8    13
## 10  2013     1     1     6 LGA    ORD   N3ALAA  AA      La G~  40.8 -73.9    22
## # ... with 336,766 more rows, and 3 more variables: tz <dbl>, dst <chr>,
## #   tzone <chr>
```
…
