R for Data Science
…
<img src="Chapter6Slides_files/figure-html/figures-side_6-1.png" width="33%" /><img src="Chapter6Slides_files/figure-html/figures-side_6-2.png" width="33%" /><img src="Chapter6Slides_files/figure-html/figures-side_6-3.png" width="33%" />

---

--

<img src="Chapter6Slides_files/figure-html/figures-side_7-1.png" width="50%" /><img src="Chapter6Slides_files/figure-html/figures-side_7-2.png" width="50%" />

---

--
### Simple count 

```
## # A tibble: 177 x 2
##    carat     n
##    <dbl> <int>
##  1  0.99    23
##  2  1     1558
##  3  1.01  2242
##  4  1.02   883
##  5  1.03   523
##  6  1.04   475
##  7  1.05   361
##  8  1.06   373
##  9  1.07   342
## 10  1.08   246
## # ... with 167 more rows
```
…
