R for Data Science
…
### This chapter uses the `nycflights13` 📦

- Data set includes 336,776 flights that departed from New York City in 2013 
- US Bureau of Transportation Statistics

---

## Introduction

```r
flights
```

```
## # A tibble: 336,776 x 19
##     year month   day dep_time sched_dep_time dep_delay arr_time sched_arr_time arr_delay carrier flight tailnum origin
##    <int> <int> <int>    <int>          <int>     <dbl>    <int>          <int>     <dbl> <chr>    <int> <chr>   <chr> 
##  1  2013     1     1      517            515         2      830            819        11 UA        1545 N14228  EWR   
##  2  2013     1     1      533            529         4      850            830        20 UA        1714 N24211  LGA   
##  3  2013     1     1      542            540         2      923            850        33 AA        1141 N619AA  JFK   
##  4  2013     1     1      544            545        -1     1004           1022       -18 B6         725 N804JB  JFK   
##  5  2013     1     1      554            600        -6      812            837       -25 DL         461 N668DN  LGA   
##  6  2013     1     1      554            558        -4      740            728        12 UA        1696 N39463  EWR   
##  7  2013     1     1      555            600        -5      913            854        19 B6         507 N516JB  EWR   
##  8  2013     1     1      557            600        -3      709            723       -14 EV        5708 N829AS  LGA   
##  9  2013     1     1      557            600        -3      838            846        -8 B6          79 N593JB  JFK   
## 10  2013     1     1      558            600        -2      753            745         8 AA         301 N3ALAA  LGA   
## # … with 336,766 more rows, and 6 more variables: dest <chr>, air_time <dbl>, distance <dbl>, hour <dbl>,
## #   minute <dbl>, time_hour <dttm>
```
…
---

## Filter rows with `filter()`

Lets you subset observations based on their values.

--

```r
filter(flights, month == 1, day == 1)
```

```
## # A tibble: 842 x 19
##     year month   day dep_time sched_dep_time dep_delay arr_time sched_arr_time arr_delay carrier flight tailnum origin
##    <int> <int> <int>    <int>          <int>     <dbl>    <int>          <int>     <dbl> <chr>    <int> <chr>   <chr> 
##  1  2013     1     1      517            515         2      830            819        11 UA        1545 N14228  EWR   
##  2  2013     1     1      533            529         4      850            830        20 UA        1714 N24211  LGA   
##  3  2013     1     1      542            540         2      923            850        33 AA        1141 N619AA  JFK   
##  4  2013     1     1      544            545        -1     1004           1022       -18 B6         725 N804JB  JFK   
##  5  2013     1     1      554            600        -6      812            837       -25 DL         461 N668DN  LGA   
##  6  2013     1     1      554            558        -4      740            728        12 UA        1696 N39463  EWR   
##  7  2013     1     1      555            600        -5      913            854        19 B6         507 N516JB  EWR   
##  8  2013     1     1      557            600        -3      709            723       -14 EV        5708 N829AS  LGA   
##  9  2013     1     1      557            600        -3      838            846        -8 B6          79 N593JB  JFK   
## 10  2013     1     1      558            600        -2      753            745         8 AA         301 N3ALAA  LGA   
## # … with 832 more rows, and 6 more variables: dest <chr>, air_time <dbl>, distance <dbl>, hour <dbl>, minute <dbl>,
## #   time_hour <dttm>
```
…
```r
flights %>% filter(carrier == "UA" | "AA" | "DL")
```
> Error: Problem with `filter()` input `..1`. x operations are possible only for numeric, logical or complex types ℹ Input `..1` is `carrier == "UA" | "AA" | "DL"`.

---
#### Ex: Find all flights that were operated by United, American, or Delta

```r
flights %>% filter(carrier == "UA" | carrier == "AA" | carrier == "DL")
```

```
## # A tibble: 139,504 x 19
##     year month   day dep_time sched_dep_time dep_delay arr_time sched_arr_time arr_delay carrier flight tailnum origin
##    <int> <int> <int>    <int>          <int>     <dbl>    <int>          <int>     <dbl> <chr>    <int> <chr>   <chr> 
##  1  2013     1     1      517            515         2      830            819        11 UA        1545 N14228  EWR   
##  2  2013     1     1      533            529         4      850            830        20 UA        1714 N24211  LGA   
##  3  2013     1     1      542            540         2      923            850        33 AA        1141 N619AA  JFK   
##  4  2013     1     1      554            600        -6      812            837       -25 DL         461 N668DN  LGA   
##  5  2013     1     1      554            558        -4      740            728        12 UA        1696 N39463  EWR   
##  6  2013     1     1      558            600        -2      753            745         8 AA         301 N3ALAA  LGA   
##  7  2013     1     1      558            600        -2      924            917         7 UA         194 N29129  JFK   
##  8  2013     1     1      558            600        -2      923            937       -14 UA        1124 N53441  EWR   
##  9  2013     1     1      559            600        -1      941            910        31 AA         707 N3DUAA  LGA   
## 10  2013     1     1      559            600        -1      854            902        -8 UA        1187 N76515  EWR   
## # … with 139,494 more rows, and 6 more variables: dest <chr>, air_time <dbl>, distance <dbl>, hour <dbl>,
## #   minute <dbl>, time_hour <dttm>
```

---
#### Ex: Find all flights that were operated by United, American, or Delta

```r
flights %>% filter(carrier %in% c("UA", "AA", "DL"))
```

```
## # A tibble: 139,504 x 19
##     year month   day dep_time sched_dep_time dep_delay arr_time sched_arr_time arr_delay carrier flight tailnum origin
##    <int> <int> <int>    <int>          <int>     <dbl>    <int>          <int>     <dbl> <chr>    <int> <chr>   <chr> 
##  1  2013     1     1      517            515         2      830            819        11 UA        1545 N14228  EWR   
##  2  2013     1     1      533            529         4      850            830        20 UA        1714 N24211  LGA   
##  3  2013     1     1      542            540         2      923            850        33 AA        1141 N619AA  JFK   
##  4  2013     1     1      554            600        -6      812            837       -25 DL         461 N668DN  LGA   
##  5  2013     1     1      554            558        -4      740            728        12 UA        1696 N39463  EWR   
##  6  2013     1     1      558            600        -2      753            745         8 AA         301 N3ALAA  LGA   
##  7  2013     1     1      558            600        -2      924            917         7 UA         194 N29129  JFK   
##  8  2013     1     1      558            600        -2      923            937       -14 UA        1124 N53441  EWR   
##  9  2013     1     1      559            600        -1      941            910        31 AA         707 N3DUAA  LGA   
## 10  2013     1     1      559            600        -1      854            902        -8 UA        1187 N76515  EWR   
## # … with 139,494 more rows, and 6 more variables: dest <chr>, air_time <dbl>, distance <dbl>, hour <dbl>,
## #   minute <dbl>, time_hour <dttm>
```
…
- **Note:** missing values (`NA`s) are always sorted at the end

---

### Ex: Sort flights to find the most delayed flights. Find the flights that left earliest.

```r
flights
```

```
## # A tibble: 336,776 x 19
##     year month   day dep_time sched_dep_time dep_delay arr_time sched_arr_time arr_delay carrier flight tailnum origin
##    <int> <int> <int>    <int>          <int>     <dbl>    <int>          <int>     <dbl> <chr>    <int> <chr>   <chr> 
##  1  2013     1     1      517            515         2      830            819        11 UA        1545 N14228  EWR   
##  2  2013     1     1      533            529         4      850            830        20 UA        1714 N24211  LGA   
##  3  2013     1     1      542            540         2      923            850        33 AA        1141 N619AA  JFK   
##  4  2013     1     1      544            545        -1     1004           1022       -18 B6         725 N804JB  JFK   
##  5  2013     1     1      554            600        -6      812            837       -25 DL         461 N668DN  LGA   
##  6  2013     1     1      554            558        -4      740            728        12 UA        1696 N39463  EWR   
##  7  2013     1     1      555            600        -5      913            854        19 B6         507 N516JB  EWR   
##  8  2013     1     1      557            600        -3      709            723       -14 EV        5708 N829AS  LGA   
##  9  2013     1     1      557            600        -3      838            846        -8 B6          79 N593JB  JFK   
## 10  2013     1     1      558            600        -2      753            745         8 AA         301 N3ALAA  LGA   
## # … with 336,766 more rows, and 6 more variables: dest <chr>, air_time <dbl>, distance <dbl>, hour <dbl>,
## #   minute <dbl>, time_hour <dttm>
```
…
- ⭐ `everything()`: useful when you want to move a few variables to the start of the data frame

---

### Ex: Brainstorm as many ways as possible to select `dep_time`, `dep_delay`, `arr_time`, and `arr_delay` from flights.

```r
flights
```

```
## # A tibble: 336,776 x 19
##     year month   day dep_time sched_dep_time dep_delay arr_time sched_arr_time arr_delay carrier flight tailnum origin
##    <int> <int> <int>    <int>          <int>     <dbl>    <int>          <int>     <dbl> <chr>    <int> <chr>   <chr> 
##  1  2013     1     1      517            515         2      830            819        11 UA        1545 N14228  EWR   
##  2  2013     1     1      533            529         4      850            830        20 UA        1714 N24211  LGA   
##  3  2013     1     1      542            540         2      923            850        33 AA        1141 N619AA  JFK   
##  4  2013     1     1      544            545        -1     1004           1022       -18 B6         725 N804JB  JFK   
##  5  2013     1     1      554            600        -6      812            837       -25 DL         461 N668DN  LGA   
##  6  2013     1     1      554            558        -4      740            728        12 UA        1696 N39463  EWR   
##  7  2013     1     1      555            600        -5      913            854        19 B6         507 N516JB  EWR   
##  8  2013     1     1      557            600        -3      709            723       -14 EV        5708 N829AS  LGA   
##  9  2013     1     1      557            600        -3      838            846        -8 B6          79 N593JB  JFK   
## 10  2013     1     1      558            600        -2      753            745         8 AA         301 N3ALAA  LGA   
## # … with 336,766 more rows, and 6 more variables: dest <chr>, air_time <dbl>, distance <dbl>, hour <dbl>,
## #   minute <dbl>, time_hour <dttm>
```

---
#### Ex: Brainstorm as many ways as possible to select `dep_time`, `dep_delay`, `arr_time`, and `arr_delay` from flights.

```r
select(flights, dep_time, dep_delay, arr_time, arr_delay)
```

```
## # A tibble: 336,776 x 4
##    dep_time dep_delay arr_time arr_delay
##       <int>     <dbl>    <int>     <dbl>
##  1      517         2      830        11
##  2      533         4      850        20
##  3      542         2      923        33
##  4      544        -1     1004       -18
##  5      554        -6      812       -25
##  6      554        -4      740        12
##  7      555        -5      913        19
##  8      557        -3      709       -14
##  9      557        -3      838        -8
## 10      558        -2      753         8
## # … with 336,766 more rows
```

---
#### Ex: Brainstorm as many ways as possible to select `dep_time`, `dep_delay`, `arr_time`, and `arr_delay` from flights.

```r
select(flights, starts_with("dep") | starts_with("arr"))
```

```
## # A tibble: 336,776 x 4
##    dep_time dep_delay arr_time arr_delay
##       <int>     <dbl>    <int>     <dbl>
##  1      517         2      830        11
##  2      533         4      850        20
##  3      542         2      923        33
##  4      544        -1     1004       -18
##  5      554        -6      812       -25
##  6      554        -4      740        12
##  7      555        -5      913        19
##  8      557        -3      709       -14
##  9      557        -3      838        -8
## 10      558        -2      753         8
## # … with 336,766 more rows
```

---
#### Ex: Brainstorm as many ways as possible to select `dep_time`, `dep_delay`, `arr_time`, and `arr_delay` from flights.

```r
select(flights, ends_with("time") | ends_with("delay"))
```

```
## # A tibble: 336,776 x 7
##    dep_time sched_dep_time arr_time sched_arr_time air_time dep_delay arr_delay
##       <int>          <int>    <int>          <int>    <dbl>     <dbl>     <dbl>
##  1      517            515      830            819      227         2        11
##  2      533            529      850            830      227         4        20
##  3      542            540      923            850      160         2        33
##  4      544            545     1004           1022      183        -1       -18
##  5      554            600      812            837      116        -6       -25
##  6      554            558      740            728      150        -4        12
##  7      555            600      913            854      158        -5        19
##  8      557            600      709            723       53        -3       -14
##  9      557            600      838            846      140        -3        -8
## 10      558            600      753            745      138        -2         8
## # … with 336,766 more rows
```
…
